{
  "project_info": {
    "project_number": "201600956776",
    "project_id": "snapnews-72cb8",
    "storage_bucket": "snapnews-72cb8.appspot.com"
  },
  "client": [
    {
      "client_info": {
        "mobilesdk_app_id": "1:201600956776:android:26811e47812b3ac1c0fedd",
        "android_client_info": {
          "package_name": "ru.nurdaulet.news"
        }
      },
      "oauth_client": [
        {
          "client_id": "201600956776-sa4hj04klo1h7d52dp7uq10768v7uf5m.apps.googleusercontent.com",
          "client_type": 3
        }
      ],
      "api_key": [
        {
          "current_key": "AIzaSyCZZNGqq-z45G6GwqIaYFK8-M-e-Wx-8Ps"
        }
      ],
      "services": {
        "appinvite_service": {
          "other_platform_oauth_client": [
            {
              "client_id": "201600956776-sa4hj04klo1h7d52dp7uq10768v7uf5m.apps.googleusercontent.com",
              "client_type": 3
            }
          ]
        }
      }
    }
  ],
  "configuration_version": "1"
}